<?xml version="1.0" encoding="utf-8"?>
<!-- Generator: Adobe Illustrator 23.0.6, SVG Export Plug-In . SVG Version: 6.00 Build 0)  -->
<svg version="1.1" id="Calque_1" xmlns="http://www.w3.org/2000/svg" xmlns:xlink="http://www.w3.org/1999/xlink" x="0px" y="0px"
	 viewBox="0 0 327.5 218.1" style="enable-background:new 0 0 327.5 218.1;" xml:space="preserve">
<style type="text/css">
	.st0{fill:#633089;}
	.st1{fill-rule:evenodd;clip-rule:evenodd;fill:#010202;}
	.st2{fill-rule:evenodd;clip-rule:evenodd;fill:#FFFFFF;}
</style>
<g>
	<g>
		<path class="st0" d="M65.6,174.9v17.7H20v-88.4h20.5v70.7H65.6z"/>
		<path class="st0" d="M74.1,111.5c0-3.5,1.2-6.4,3.5-8.7c2.4-2.4,5.3-3.5,8.8-3.5c1.8,0,3.4,0.3,4.9,0.9s2.8,1.5,4,2.6
			c1.1,1.1,2,2.4,2.7,3.9c0.6,1.5,0.9,3.1,0.9,4.8c0,1.7-0.3,3.3-0.9,4.7c-0.6,1.5-1.5,2.8-2.7,3.9c-1.1,1.1-2.5,2-4,2.7
			c-1.5,0.6-3.2,0.9-4.9,0.9c-1.8,0-3.4-0.3-4.9-0.9c-1.5-0.6-2.8-1.5-3.9-2.7c-1.1-1.1-2-2.4-2.7-3.9
			C74.5,114.8,74.1,113.2,74.1,111.5z M76.9,131.7h19.3v60.9H76.9V131.7z"/>
		<path class="st0" d="M176.5,131.7v60.9h-19.3V184c-0.8,1.4-1.8,2.8-3,4c-1.3,1.2-2.7,2.3-4.4,3.2c-1.6,0.9-3.4,1.6-5.4,2.1
			c-1.9,0.5-3.9,0.8-5.8,0.8c-4.4,0-8.4-0.8-12.1-2.5c-3.7-1.6-6.8-3.9-9.4-6.7c-2.6-2.8-4.6-6.2-6.1-10.1
			c-1.4-3.9-2.1-8.1-2.1-12.7c0-4.5,0.7-8.8,2.1-12.7c1.4-3.9,3.5-7.3,6.1-10.1c2.6-2.8,5.7-5.1,9.4-6.7c3.7-1.6,7.7-2.5,12.1-2.5
			c1.9,0,3.9,0.3,5.8,0.8c1.9,0.5,3.7,1.3,5.4,2.2c1.6,0.9,3.1,2,4.4,3.3c1.3,1.3,2.3,2.6,3,3.9v-8.7H176.5z M142.6,177.7
			c2.2,0,4.2-0.4,5.9-1.3c1.8-0.8,3.3-2,4.5-3.3c1.3-1.4,2.3-3,3-4.9c0.7-1.9,1.1-3.9,1.1-6c0-2.1-0.4-4.1-1.1-5.9
			c-0.7-1.9-1.7-3.5-3-4.9c-1.3-1.4-2.8-2.6-4.5-3.4c-1.8-0.8-3.7-1.3-5.9-1.3c-2.2,0-4.2,0.4-5.9,1.3c-1.8,0.8-3.3,2-4.5,3.4
			c-1.3,1.4-2.3,3.1-3,4.9c-0.7,1.9-1.1,3.8-1.1,5.9c0,2.1,0.4,4.1,1.1,6c0.7,1.9,1.7,3.5,3,4.9c1.3,1.4,2.8,2.5,4.5,3.3
			C138.4,177.3,140.4,177.7,142.6,177.7z"/>
		<path class="st0" d="M192.9,131.7h19.3v8.8c1.7-3.3,4.2-5.8,7.6-7.6c3.4-1.8,7.5-2.7,12.3-2.7c4,0,7.4,0.6,10.2,1.8
			c2.9,1.2,5.1,2.9,6.8,5.1c1.9,2.4,3.2,5.1,3.9,8.1c0.6,3.1,0.9,6.8,0.9,11.2v36.1h-19.3v-31.2c0-4.4-0.8-7.9-2.3-10.7
			c-1.6-2.7-4.4-4.1-8.4-4.1c-4,0-6.9,1.4-8.8,4.2s-2.9,6.5-2.9,11.2v30.6h-19.3V131.7z"/>
		<path class="st0" d="M307.6,192.6c-1.4,0.3-3.2,0.5-5.4,0.7c-2.1,0.2-4.7,0.3-7.5,0.3c-2.3,0-4.7-0.2-7.2-0.5
			c-2.5-0.3-4.9-1.2-7-2.6c-2.1-1.4-3.9-3.5-5.3-6.4c-1.4-2.9-2.1-6.9-2.1-11.9v-26h-9.6v-14.4h9.6v-18.1h19.2v18.1h13.9v14.4h-13.9
			v21.7c0,2.3,0.2,4.1,0.6,5.4c0.4,1.3,1,2.4,1.8,3.1c0.8,0.7,1.6,1.2,2.7,1.5c1,0.3,2.1,0.4,3.3,0.4s2.4,0,3.7,0
			c1.3,0,2.4-0.1,3.3-0.3V192.6z"/>
	</g>
	<path class="st1" d="M129.9,113.8h110.6c4.9-6.9,7.9-14.7,7.9-22.8c0-9-2.7-17.4-7.3-24.9c0.5-2.4,7.4-36.2-0.7-41.1
		c-8.7-5.3-23.6,14.6-28.4,17.8c-8.2-3.2-17.3-5-26.9-5c0,0-0.1,0-0.1,0c-7.5-0.2-14.9,0.5-19.9,2.7c-1.1,0.3-2.1,0.6-3.1,1
		c-4.8-2.3-22.5-21.9-31.3-16.5c-8,4.9-1.9,38.3-1.3,41.1c-4.7,7.4-7.4,15.9-7.4,24.9C122,99.1,125,106.9,129.9,113.8z"/>
	<g>
		<g>
			<g>
				<g>
					<circle class="st2" cx="153.8" cy="83.7" r="16.1"/>
				</g>
			</g>
			<circle class="st1" cx="153.8" cy="83.7" r="10.6"/>
			<circle class="st2" cx="159.2" cy="75.9" r="5.4"/>
		</g>
		<g>
			<g>
				<g>
					<circle class="st2" cx="216.5" cy="83.7" r="16.1"/>
				</g>
			</g>
			<circle class="st1" cx="216.5" cy="83.7" r="10.6"/>
			<circle class="st2" cx="221.9" cy="75.9" r="5.4"/>
		</g>
	</g>
</g>
</svg>
